<svg xmlns="http://www.w3.org/2000/svg" viewBox="0 0 64.04 57.172">
  <path d="M44.094,57.172H59.482a4.282,4.282,0,0,0,3.363-1.41A5.377,5.377,0,0,0,64.1,52.043V17.427a5.382,5.382,0,0,0-1.257-3.72,4.282,4.282,0,0,0-3.363-1.41H45.452V52.043a10.517,10.517,0,0,1-.339,2.683A9.653,9.653,0,0,1,44.094,57.172ZM51.6,26.225V22.149A.9.9,0,0,1,52.62,21.13h4.246a.886.886,0,0,1,.986,1.019v4.076q0,1.053-.986,1.053H52.62A.916.916,0,0,1,51.6,26.225Zm0,10.565V32.68a.887.887,0,0,1,1.019-.986h4.246a.872.872,0,0,1,.986.986v4.11a.871.871,0,0,1-.986.985H52.62A.886.886,0,0,1,51.6,36.79Zm0,10.531V43.244a.916.916,0,0,1,1.019-1.053h4.246q.986,0,.986,1.053v4.077a.887.887,0,0,1-.986,1.019H52.62A.9.9,0,0,1,51.6,47.321ZM0,52.043a5.377,5.377,0,0,0,1.257,3.719,4.282,4.282,0,0,0,3.363,1.41H36.858a4.282,4.282,0,0,0,3.363-1.41,5.377,5.377,0,0,0,1.257-3.719V5.13a5.382,5.382,0,0,0-1.257-3.72A4.282,4.282,0,0,0,36.858,0H4.62A4.282,4.282,0,0,0,1.257,1.41,5.382,5.382,0,0,0,0,5.13Zm11.142.237v-8.7a2.076,2.076,0,0,1,.6-1.563,2.169,2.169,0,0,1,1.579-.577H28.263a1.892,1.892,0,0,1,2.141,2.14v8.7ZM10.4,14.369V9.41a1.066,1.066,0,0,1,1.189-1.223h5.129A1.081,1.081,0,0,1,17.936,9.41v4.959a1.1,1.1,0,0,1-1.223,1.257H11.584Q10.395,15.626,10.4,14.369Zm13.214,0V9.41A1.067,1.067,0,0,1,24.8,8.187h5.13A1.081,1.081,0,0,1,31.151,9.41v4.959a1.1,1.1,0,0,1-1.223,1.257H24.8Q23.61,15.626,23.609,14.369ZM10.4,25V20.077q0-1.257,1.189-1.257h5.129a1.1,1.1,0,0,1,1.223,1.257V25a1.1,1.1,0,0,1-1.223,1.257H11.584Q10.395,26.259,10.4,25Zm13.214,0V20.077q0-1.257,1.189-1.257h5.13a1.1,1.1,0,0,1,1.223,1.257V25a1.1,1.1,0,0,1-1.223,1.257H24.8Q23.61,26.259,23.609,25ZM10.4,35.635V30.709q0-1.257,1.189-1.257h5.129a1.1,1.1,0,0,1,1.223,1.257v4.926a1.1,1.1,0,0,1-1.223,1.257H11.584Q10.395,36.892,10.4,35.635Zm13.214,0V30.709q0-1.257,1.189-1.257h5.13a1.1,1.1,0,0,1,1.223,1.257v4.926a1.1,1.1,0,0,1-1.223,1.257H24.8Q23.61,36.892,23.609,35.635Z"/>
</svg>
