<svg xmlns="http://www.w3.org/2000/svg" viewBox="0 0 64 55.4">
	<path d="M5,55.4h39.6c3.2,0,5.1-1.5,5.1-3.9c0-7.6-9.5-18.2-24.9-18.2C9.5,33.3,0,43.9,0,51.5C0,53.9,1.9,55.4,5,55.4z"/>
	<path d="M24.9,28.1c6.4,0,11.8-5.7,11.8-13.1c0-7.3-5.5-12.7-11.8-12.7c-6.3,0-11.8,5.5-11.8,12.8C13.1,22.4,18.5,28.1,24.9,28.1z"
		/>
	<path d="M53.7,21.2c1.5,0,2.4-0.9,2.4-2.1c0-0.1,0-0.3,0-0.4c0-1.6,1-2.7,3-4.1C62,12.8,64,11.1,64,7.5C64,2.6,59.6,0,54.6,0
		c-5.1,0-8.4,2.4-9.2,5.1c-0.2,0.5-0.3,1-0.3,1.5c0,1.3,1.1,2,2,2c1,0,1.7-0.5,2.2-1.2l0.5-0.7C50.9,5,52.5,4,54.4,4
		c2.7,0,4.4,1.5,4.4,3.8c0,2-1.2,3-3.8,4.8c-2.1,1.5-3.7,3.1-3.7,6c0,0.1,0,0.3,0,0.4C51.3,20.4,52.2,21.2,53.7,21.2z"/>
	<path d="M53.6,30.1c1.7,0,3.2-1.4,3.2-3.1c0-1.7-1.4-3.1-3.2-3.1c-1.7,0-3.2,1.4-3.2,3.1C50.4,28.6,51.9,30.1,53.6,30.1z"/>
</svg>
