<svg xmlns="http://www.w3.org/2000/svg" viewBox="0 0 1024 1024">
	<path fill="#006FCF" d="M1024,469.8V1024H0V0h1024v298.8C1021.7,298.8,1024,469.8,1024,469.8"/>
	<polygon fill="#FFFFFF" points="760.1,391.5 751,366.5 741.9,391.5 730.5,418.8 771.4,418.8 	"/>
	<path fill="#FFFFFF" d="M516.6,384.7c0-6.8-4.6-13.7-15.9-13.7c0,0-34.1-2.3-34.1-2.3v29.6h34.1C512.1,398.3,516.6,391.5,516.6,384.7z
		"/>
	<polygon fill="#FFFFFF" points="70.7,366.5 61.6,391.5 50.2,418.8 91.1,418.8 79.8,391.5 	"/>
	<path fill="#FFFFFF" d="M491.4,474.1l15,22h110.8l-0.4-0.5v-11.5c5.5,3.4,11.6,6.1,18.1,8c0,0,12.2,3.9,17.2,3.9h74.8l11.4-25h21.1
		l11.4,25h111.5v-24.1l17,24.1h72.5V316.4h-77.3v20.2L880,316.4h-81.2v28.7l-12.5-28.7H664.5c-18.2,0-34.4,4.7-47.8,13v-13H230.8
		L220.7,343l-10.3-26.6h-89.7v33.9L106,316.4H33L0,392.6l0.1,103.6h48.6l11.4-25h19.4l9.1,25h402.8V474.1z M828.3,346h36.4
		l43.2,68.3l6.8,11.4V346h27.3v120.6H908l-47.8-72.8c0,0-4.6-9.1-4.6-9.1v81.9h-27.3V346z M766.9,346l52.3,120.6h-29.6
		c0,0-11.4-25-11.4-25h-59.2l-11.4,25h-29.6L730.5,346H766.9z M607.6,405.2c0-34.1,20.5-59.2,56.9-59.2h31.9v25h-29.6
		c-20.5,0-31.9,13.7-31.9,34.1v2.3c0,20.5,11.4,34.1,31.9,34.1h6.8l-11.4,25c-34.1,0-54.6-22.8-54.6-59.2V405.2z M559.8,348.3h27.3
		v118.3h-27.3V348.3z M109.3,466.6l-9.1-25H41.1l-11.4,25H0.1L52.5,346h34.1l52.3,120.6H109.3z M295.9,466.6h-27.3v-97.8l-34.1,97.8
		h-25l-31.9-97.8v97.8h-27.3V346h45.5l27.3,81.9l27.3-81.9h45.5V466.6z M416.5,368.8h-68.3v22.8h66v25h-66v25h68.3v25h-95.6V346
		h95.6V368.8z M466.6,423.4c0,0-2.3,43.2-2.3,43.2H437V346h63.7c25,0,41,15.9,41,38.7c0,18.2-11.4,31.9-31.9,36.4l41,45.5h-34.1
		l-36.4-43.2H466.6z"/>
	<path fill="#FFFFFF" d="M1024,553.1H450.1h-55.1l-15,19.6l-15-19.6h-183v179.7h181.2l16-21l15.1,21h113v-41h6.8
		c10.7,0,20.7-1.9,29.6-5.4v46.4h84.9v-17.9l13,17.9h338.9c16.7,0,31.5-2.5,43.2-10.9L1024,553.1z M307.3,605.4H239v22.8h66v25h-66
		v25h68.3v25h-95.6V582.6h95.6V605.4z M443.8,703.2h-34.1c0,0-29.6-41-29.6-41l-29.6,38.7h-34.1l47.8-59.2l-47.8-59.2h34.1
		l29.6,38.7l29.6-38.7h34.1L396,641.8L443.8,703.2z M514.3,662.3h-36.4v41h-27.3V582.6c0,0,66-2.3,66-2.3c25,0,41,18.2,41,41
		C557.6,646.3,539.4,662.3,514.3,662.3z M653.1,703.2L616.7,660h-13.7c0,0-2.3,43.2-2.3,43.2h-27.3V582.6h63.7c25,0,41,15.9,41,38.7
		c0,18.2-11.4,31.9-31.9,36.4l41,45.5H653.1z M791.9,607.6v-2.2h-68.3v22.8h66v25h-66v25h68.3v25h-95.6V582.6h95.6v22.8h0
		C791.9,605.4,791.9,607.1,791.9,607.6z M846.5,632.7h27.3c22.8,0,36.4,11.4,36.4,34.1s-15.9,38.7-41,38.7h-59.2v-25h61.4
		c6.8,0,13.7-4.6,11.4-13.7c0-6.8-4.6-11.4-11.4-11.4h-27.3c-22.8,0-36.4-11.4-36.4-34.1c0-20.5,15.9-36.4,41-36.4h61.4l-11.4,25
		h-52.3c-6.8,0-11.4,4.6-11.4,11.4S839.7,632.7,846.5,632.7z M958,632.7h27.3c22.8,0,36.4,11.4,36.4,34.1s-15.9,38.7-41,38.7h-59.2
		v-25H983c9.1,0,13.7-4.6,11.4-13.7c0-6.8-4.6-11.4-11.4-11.4h-27.3c-22.8,0-36.4-11.4-36.4-34.1c0-20.5,15.9-36.4,41-36.4h61.4
		l-11.4,25H958c-6.8,0-11.4,4.6-11.4,11.4S951.2,632.7,958,632.7z"/>
	<path fill="#FFFFFF" d="M512.1,607.7h-34.1v31.9h36.4c11.4,0,15.9-6.8,15.9-15.9S523.4,607.7,512.1,607.7z"/>
	<path fill="#FFFFFF" d="M653.1,621.3c0-6.8-4.6-13.7-15.9-13.7c0,0-34.1-2.3-34.1-2.3V635h34.1C648.6,635,653.1,628.1,653.1,621.3z"/>
</svg>
